{
    "current_page": 1,
    "data": [
      {
        "Noid": 8,
        "TwoLetterCode": null,
        "ThreeLetterCode": null,
        "AirlinesName": null,
        "CountryCode": null,
        "Actived": null,
        "Void": 0,
        "KodeGudangByCustom": "",
        "WHcode": "BOTH",
        "activeGud": null,
        "flag_ekspor": 1,
        "flag_import": 1,
        "flag_outgoing": 0,
        "flag_incoming": 0,
        "flag_plp": 1
      },
      {
        "Noid": 9,
        "TwoLetterCode": "2Y",
        "ThreeLetterCode": "585",
        "AirlinesName": "MY INDO AIRLINES",
        "CountryCode": "ID",
        "Actived": 1,
        "Void": 0,
        "KodeGudangByCustom": "GBGD",
        "WHcode": "BOTH",
        "activeGud": null,
        "flag_ekspor": 1,
        "flag_import": 1,
        "flag_outgoing": 0,
        "flag_incoming": 0,
        "flag_plp": 1
      },
      {
        "Noid": 12,
        "TwoLetterCode": "st",
        "ThreeLetterCode": "str",
        "AirlinesName": "string",
        "CountryCode": "st",
        "Actived": 1,
        "Void": 1,
        "KodeGudangByCustom": "strin",
        "WHcode": "strin",
        "activeGud": "1",
        "flag_ekspor": 1,
        "flag_import": 1,
        "flag_outgoing": 1,
        "flag_incoming": 1,
        "flag_plp": 1
      },
      {
        "Noid": 13,
        "TwoLetterCode": "8F",
        "ThreeLetterCode": "690",
        "AirlinesName": "CARDIG AIR",
        "CountryCode": "ID",
        "Actived": 1,
        "Void": 0,
        "KodeGudangByCustom": "GBGT",
        "WHcode": "PLP",
        "activeGud": null,
        "flag_ekspor": 0,
        "flag_import": 1,
        "flag_outgoing": 0,
        "flag_incoming": 0,
        "flag_plp": 1
      },
      {
        "Noid": 14,
        "TwoLetterCode": "8K",
        "ThreeLetterCode": "541",
        "AirlinesName": "K-MILE AIR",
        "CountryCode": "BK",
        "Actived": 1,
        "Void": 0,
        "KodeGudangByCustom": "GBGT",
        "WHcode": "PLP",
        "activeGud": null,
        "flag_ekspor": 0,
        "flag_import": 1,
        "flag_outgoing": 0,
        "flag_incoming": 0,
        "flag_plp": 1
      },
      {
        "Noid": 15,
        "TwoLetterCode": "9H",
        "ThreeLetterCode": "000",
        "AirlinesName": "SMARTLYNX AIRLINES MALTA",
        "CountryCode": "MT",
        "Actived": 1,
        "Void": 0,
        "KodeGudangByCustom": "GBGD",
        "WHcode": "BOTH",
        "activeGud": null,
        "flag_ekspor": 0,
        "flag_import": 0,
        "flag_outgoing": 0,
        "flag_incoming": 0,
        "flag_plp": 0
      },
      {
        "Noid": 16,
        "TwoLetterCode": "AK",
        "ThreeLetterCode": "380",
        "AirlinesName": "AIR ASIA",
        "CountryCode": "MY",
        "Actived": 1,
        "Void": 0,
        "KodeGudangByCustom": "GBGT",
        "WHcode": "PLP",
        "activeGud": null,
        "flag_ekspor": 0,
        "flag_import": 1,
        "flag_outgoing": 0,
        "flag_incoming": 0,
        "flag_plp": 1
      },
      {
        "Noid": 17,
        "TwoLetterCode": "AK",
        "ThreeLetterCode": "807",
        "AirlinesName": "AIR ASIA",
        "CountryCode": "MY",
        "Actived": 1,
        "Void": 0,
        "KodeGudangByCustom": "GBGT",
        "WHcode": "PLP",
        "activeGud": null,
        "flag_ekspor": 0,
        "flag_import": 1,
        "flag_outgoing": 0,
        "flag_incoming": 0,
        "flag_plp": 1
      },
      {
        "Noid": 19,
        "TwoLetterCode": "AY",
        "ThreeLetterCode": "106",
        "AirlinesName": "FINNAIR",
        "CountryCode": "LH",
        "Actived": 1,
        "Void": 0,
        "KodeGudangByCustom": "GBGT",
        "WHcode": "PLP",
        "activeGud": null,
        "flag_ekspor": 0,
        "flag_import": 1,
        "flag_outgoing": 0,
        "flag_incoming": 0,
        "flag_plp": 1
      },
      {
        "Noid": 20,
        "TwoLetterCode": "BN",
        "ThreeLetterCode": "672",
        "AirlinesName": "ROYAL BRUNEI AIRLINES",
        "CountryCode": "BN",
        "Actived": 1,
        "Void": 0,
        "KodeGudangByCustom": "GBGT",
        "WHcode": "PLP",
        "activeGud": null,
        "flag_ekspor": 0,
        "flag_import": 1,
        "flag_outgoing": 0,
        "flag_incoming": 0,
        "flag_plp": 1
      }
    ],
    "first_page_url": "http://localhost/api/mst/mst-airlines?page=1",
    "from": 1,
    "last_page": 22,
    "last_page_url": "http://localhost/api/mst/mst-airlines?page=22",
    "links": [
      {
        "url": null,
        "label": "&laquo; Previous",
        "active": false
      },
      {
        "url": "http://localhost/api/mst/mst-airlines?page=1",
        "label": "1",
        "active": true
      },
      {
        "url": "http://localhost/api/mst/mst-airlines?page=2",
        "label": "2",
        "active": false
      },
      {
        "url": "http://localhost/api/mst/mst-airlines?page=3",
        "label": "3",
        "active": false
      },
      {
        "url": "http://localhost/api/mst/mst-airlines?page=4",
        "label": "4",
        "active": false
      },
      {
        "url": "http://localhost/api/mst/mst-airlines?page=5",
        "label": "5",
        "active": false
      },
      {
        "url": "http://localhost/api/mst/mst-airlines?page=6",
        "label": "6",
        "active": false
      },
      {
        "url": "http://localhost/api/mst/mst-airlines?page=7",
        "label": "7",
        "active": false
      },
      {
        "url": "http://localhost/api/mst/mst-airlines?page=8",
        "label": "8",
        "active": false
      },
      {
        "url": "http://localhost/api/mst/mst-airlines?page=9",
        "label": "9",
        "active": false
      },
      {
        "url": "http://localhost/api/mst/mst-airlines?page=10",
        "label": "10",
        "active": false
      },
      {
        "url": null,
        "label": "...",
        "active": false
      },
      {
        "url": "http://localhost/api/mst/mst-airlines?page=21",
        "label": "21",
        "active": false
      },
      {
        "url": "http://localhost/api/mst/mst-airlines?page=22",
        "label": "22",
        "active": false
      },
      {
        "url": "http://localhost/api/mst/mst-airlines?page=2",
        "label": "Next &raquo;",
        "active": false
      }
    ],
    "next_page_url": "http://localhost/api/mst/mst-airlines?page=2",
    "path": "http://localhost/api/mst/mst-airlines",
    "per_page": 10,
    "prev_page_url": null,
    "to": 10,
    "total": 212
  }