{
    "current_page": 1,
    "data": [
      {
        "id_": 1,
        "tps": "BDO1",
        "gate_type": "incoming",
        "waybill_smu": "12651269293",
        "hawb": "12651269293",
        "koli": 15,
        "netto": "177.00",
        "volume": "177.00",
        "kindofgood": "harus ambil dari incoming delivery",
        "airline_code": "QG",
        "flight_no": "QG888",
        "origin": "DPS",
        "transit": null,
        "dest": "BDO",
        "shipper_name": "harus ambil dari incoming delivery",
        "consignee_name": "harus ambil dari incoming delivery",
        "_is_active": 1,
        "_created_by": "Mrs. Liliana Keebler PhD",
        "_created_at": "2023-09-18 03:12:15",
        "_updated_by": null,
        "_updated_at": "2023-09-18 03:12:15",
        "_remarks_last_update": "1",
        "key_upload": null,
        "full_check": 1
      }
    ],
    "first_page_url": "http://ctos-api-v2.test/api/cloud-status?page=1",
    "from": 1,
    "last_page": 822,
    "last_page_url": "http://ctos-api-v2.test/api/cloud-status?page=822",
    "links": [
      {
        "url": null,
        "label": "&laquo; Previous",
        "active": false
      },
      {
        "url": "http://ctos-api-v2.test/api/cloud-status?page=1",
        "label": "1",
        "active": true
      },
      {
        "url": "http://ctos-api-v2.test/api/cloud-status?page=2",
        "label": "2",
        "active": false
      },
      {
        "url": "http://ctos-api-v2.test/api/cloud-status?page=3",
        "label": "3",
        "active": false
      },
      {
        "url": "http://ctos-api-v2.test/api/cloud-status?page=4",
        "label": "4",
        "active": false
      },
      {
        "url": "http://ctos-api-v2.test/api/cloud-status?page=5",
        "label": "5",
        "active": false
      },
      {
        "url": "http://ctos-api-v2.test/api/cloud-status?page=6",
        "label": "6",
        "active": false
      },
      {
        "url": "http://ctos-api-v2.test/api/cloud-status?page=7",
        "label": "7",
        "active": false
      },
      {
        "url": "http://ctos-api-v2.test/api/cloud-status?page=8",
        "label": "8",
        "active": false
      },
      {
        "url": "http://ctos-api-v2.test/api/cloud-status?page=9",
        "label": "9",
        "active": false
      },
      {
        "url": "http://ctos-api-v2.test/api/cloud-status?page=10",
        "label": "10",
        "active": false
      },
      {
        "url": null,
        "label": "...",
        "active": false
      },
      {
        "url": "http://ctos-api-v2.test/api/cloud-status?page=821",
        "label": "821",
        "active": false
      },
      {
        "url": "http://ctos-api-v2.test/api/cloud-status?page=822",
        "label": "822",
        "active": false
      },
      {
        "url": "http://ctos-api-v2.test/api/cloud-status?page=2",
        "label": "Next &raquo;",
        "active": false
      }
    ],
    "next_page_url": "http://ctos-api-v2.test/api/cloud-status?page=2",
    "path": "http://ctos-api-v2.test/api/cloud-status",
    "per_page": 10,
    "prev_page_url": null,
    "to": 10,
    "total": 8217
  }