## Autogenerated by Scribe. DO NOT MODIFY.

name: Master
description: |-

  APIs for All Master Controller
endpoints:
  -
    httpMethods:
      - GET
    uri: api/mst/mst-airlines
    metadata:
      groupName: Master
      groupDescription: |-

        APIs for All Master Controller
      subgroup: ''
      subgroupDescription: ''
      title: 'Get Paginate Airlines'
      description: ''
      authenticated: false
      custom: []
    headers:
      Content-Type: application/json
      Accept: application/json
    urlParameters: []
    cleanUrlParameters: []
    queryParameters: []
    cleanQueryParameters: []
    bodyParameters: []
    cleanBodyParameters: []
    fileParameters: []
    responses:
      -
        status: 200
        content: '{"current_page":1,"data":[{"Noid":8,"TwoLetterCode":null,"ThreeLetterCode":null,"AirlinesName":null,"CountryCode":null,"Actived":null,"Void":0,"KodeGudangByCustom":"","WHcode":"BOTH","activeGud":null,"flag_ekspor":1,"flag_import":1,"flag_outgoing":0,"flag_incoming":0,"flag_plp":1},{"Noid":9,"TwoLetterCode":"2Y","ThreeLetterCode":"585","AirlinesName":"MY INDO AIRLINES","CountryCode":"ID","Actived":1,"Void":0,"KodeGudangByCustom":"GBGD","WHcode":"BOTH","activeGud":null,"flag_ekspor":1,"flag_import":1,"flag_outgoing":0,"flag_incoming":0,"flag_plp":1},{"Noid":12,"TwoLetterCode":"st","ThreeLetterCode":"str","AirlinesName":"string","CountryCode":"st","Actived":1,"Void":1,"KodeGudangByCustom":"strin","WHcode":"strin","activeGud":"1","flag_ekspor":1,"flag_import":1,"flag_outgoing":1,"flag_incoming":1,"flag_plp":1},{"Noid":13,"TwoLetterCode":"8F","ThreeLetterCode":"690","AirlinesName":"CARDIG AIR","CountryCode":"ID","Actived":1,"Void":0,"KodeGudangByCustom":"GBGT","WHcode":"PLP","activeGud":null,"flag_ekspor":0,"flag_import":1,"flag_outgoing":0,"flag_incoming":0,"flag_plp":1},{"Noid":14,"TwoLetterCode":"8K","ThreeLetterCode":"541","AirlinesName":"K-MILE AIR","CountryCode":"BK","Actived":1,"Void":0,"KodeGudangByCustom":"GBGT","WHcode":"PLP","activeGud":null,"flag_ekspor":0,"flag_import":1,"flag_outgoing":0,"flag_incoming":0,"flag_plp":1},{"Noid":15,"TwoLetterCode":"9H","ThreeLetterCode":"000","AirlinesName":"SMARTLYNX AIRLINES MALTA","CountryCode":"MT","Actived":1,"Void":0,"KodeGudangByCustom":"GBGD","WHcode":"BOTH","activeGud":null,"flag_ekspor":0,"flag_import":0,"flag_outgoing":0,"flag_incoming":0,"flag_plp":0},{"Noid":16,"TwoLetterCode":"AK","ThreeLetterCode":"380","AirlinesName":"AIR ASIA","CountryCode":"MY","Actived":1,"Void":0,"KodeGudangByCustom":"GBGT","WHcode":"PLP","activeGud":null,"flag_ekspor":0,"flag_import":1,"flag_outgoing":0,"flag_incoming":0,"flag_plp":1},{"Noid":17,"TwoLetterCode":"AK","ThreeLetterCode":"807","AirlinesName":"AIR ASIA","CountryCode":"MY","Actived":1,"Void":0,"KodeGudangByCustom":"GBGT","WHcode":"PLP","activeGud":null,"flag_ekspor":0,"flag_import":1,"flag_outgoing":0,"flag_incoming":0,"flag_plp":1},{"Noid":19,"TwoLetterCode":"AY","ThreeLetterCode":"106","AirlinesName":"FINNAIR","CountryCode":"LH","Actived":1,"Void":0,"KodeGudangByCustom":"GBGT","WHcode":"PLP","activeGud":null,"flag_ekspor":0,"flag_import":1,"flag_outgoing":0,"flag_incoming":0,"flag_plp":1},{"Noid":20,"TwoLetterCode":"BN","ThreeLetterCode":"672","AirlinesName":"ROYAL BRUNEI AIRLINES","CountryCode":"BN","Actived":1,"Void":0,"KodeGudangByCustom":"GBGT","WHcode":"PLP","activeGud":null,"flag_ekspor":0,"flag_import":1,"flag_outgoing":0,"flag_incoming":0,"flag_plp":1}],"first_page_url":"http:\/\/localhost\/api\/mst\/mst-airlines?page=1","from":1,"last_page":22,"last_page_url":"http:\/\/localhost\/api\/mst\/mst-airlines?page=22","links":[{"url":null,"label":"&laquo; Previous","active":false},{"url":"http:\/\/localhost\/api\/mst\/mst-airlines?page=1","label":"1","active":true},{"url":"http:\/\/localhost\/api\/mst\/mst-airlines?page=2","label":"2","active":false},{"url":"http:\/\/localhost\/api\/mst\/mst-airlines?page=3","label":"3","active":false},{"url":"http:\/\/localhost\/api\/mst\/mst-airlines?page=4","label":"4","active":false},{"url":"http:\/\/localhost\/api\/mst\/mst-airlines?page=5","label":"5","active":false},{"url":"http:\/\/localhost\/api\/mst\/mst-airlines?page=6","label":"6","active":false},{"url":"http:\/\/localhost\/api\/mst\/mst-airlines?page=7","label":"7","active":false},{"url":"http:\/\/localhost\/api\/mst\/mst-airlines?page=8","label":"8","active":false},{"url":"http:\/\/localhost\/api\/mst\/mst-airlines?page=9","label":"9","active":false},{"url":"http:\/\/localhost\/api\/mst\/mst-airlines?page=10","label":"10","active":false},{"url":null,"label":"...","active":false},{"url":"http:\/\/localhost\/api\/mst\/mst-airlines?page=21","label":"21","active":false},{"url":"http:\/\/localhost\/api\/mst\/mst-airlines?page=22","label":"22","active":false},{"url":"http:\/\/localhost\/api\/mst\/mst-airlines?page=2","label":"Next &raquo;","active":false}],"next_page_url":"http:\/\/localhost\/api\/mst\/mst-airlines?page=2","path":"http:\/\/localhost\/api\/mst\/mst-airlines","per_page":10,"prev_page_url":null,"to":10,"total":212}'
        headers:
          cache-control: 'no-cache, private'
          content-type: application/json
          access-control-allow-origin: '*'
        description: null
        custom: []
    responseFields: []
    auth: []
    controller: null
    method: null
    route: null
    custom: []
  -
    httpMethods:
      - POST
    uri: api/mst/mst-airlines
    metadata:
      groupName: Master
      groupDescription: |-

        APIs for All Master Controller
      subgroup: ''
      subgroupDescription: ''
      title: 'Create Airlines.'
      description: ''
      authenticated: false
      custom: []
    headers:
      Content-Type: application/json
      Accept: application/json
    urlParameters: []
    cleanUrlParameters: []
    queryParameters: []
    cleanQueryParameters: []
    bodyParameters:
      TwoLetterCode:
        name: TwoLetterCode
        description: 'Must be at least 1 character. Must not be greater than 2 characters.'
        required: false
        example: i
        type: string
        enumValues: []
        exampleWasSpecified: false
        custom: []
      ThreeLetterCode:
        name: ThreeLetterCode
        description: 'Must be at least 1 character. Must not be greater than 3 characters.'
        required: false
        example: xh
        type: string
        enumValues: []
        exampleWasSpecified: false
        custom: []
      AirlinesName:
        name: AirlinesName
        description: 'Must be at least 1 character. Must not be greater than 25 characters.'
        required: false
        example: bx
        type: string
        enumValues: []
        exampleWasSpecified: false
        custom: []
      CountryCode:
        name: CountryCode
        description: 'Must be at least 1 character. Must not be greater than 2 characters.'
        required: false
        example: cg
        type: string
        enumValues: []
        exampleWasSpecified: false
        custom: []
      Actived:
        name: Actived
        description: 'Must be at least 1. Must not be greater than 2.'
        required: true
        example: 2
        type: integer
        enumValues: []
        exampleWasSpecified: false
        custom: []
      Void:
        name: Void
        description: 'Must be at least 1. Must not be greater than 2.'
        required: true
        example: 1
        type: integer
        enumValues: []
        exampleWasSpecified: false
        custom: []
      KodeGudangByCustom:
        name: KodeGudangByCustom
        description: 'Must be at least 1 character. Must not be greater than 5 characters.'
        required: true
        example: it
        type: string
        enumValues: []
        exampleWasSpecified: false
        custom: []
      WHcode:
        name: WHcode
        description: 'Must be at least 1 character. Must not be greater than 5 characters.'
        required: false
        example: jncbn
        type: string
        enumValues: []
        exampleWasSpecified: false
        custom: []
      activeGud:
        name: activeGud
        description: ''
        required: false
        example: '5'
        type: string
        enumValues:
          - '1'
          - '2'
          - '3'
          - '4'
          - '5'
        exampleWasSpecified: false
        custom: []
      flag_ekspor:
        name: flag_ekspor
        description: ''
        required: true
        example: false
        type: boolean
        enumValues: []
        exampleWasSpecified: false
        custom: []
      flag_import:
        name: flag_import
        description: ''
        required: true
        example: true
        type: boolean
        enumValues: []
        exampleWasSpecified: false
        custom: []
      flag_outgoing:
        name: flag_outgoing
        description: ''
        required: true
        example: true
        type: boolean
        enumValues: []
        exampleWasSpecified: false
        custom: []
      flag_incoming:
        name: flag_incoming
        description: ''
        required: true
        example: true
        type: boolean
        enumValues: []
        exampleWasSpecified: false
        custom: []
      flag_plp:
        name: flag_plp
        description: ''
        required: true
        example: false
        type: boolean
        enumValues: []
        exampleWasSpecified: false
        custom: []
    cleanBodyParameters:
      TwoLetterCode: i
      ThreeLetterCode: xh
      AirlinesName: bx
      CountryCode: cg
      Actived: 2
      Void: 1
      KodeGudangByCustom: it
      WHcode: jncbn
      activeGud: '5'
      flag_ekspor: false
      flag_import: true
      flag_outgoing: true
      flag_incoming: true
      flag_plp: false
    fileParameters: []
    responses:
      -
        status: 200
        content: 'array{status: string, message: string}'
        headers: []
        description: ''
        custom: []
    responseFields: []
    auth: []
    controller: null
    method: null
    route: null
    custom: []
  -
    httpMethods:
      - GET
    uri: 'api/mst/mst-airlines/{id}'
    metadata:
      groupName: Master
      groupDescription: |-

        APIs for All Master Controller
      subgroup: ''
      subgroupDescription: ''
      title: 'Display the specified resource.'
      description: ''
      authenticated: false
      custom: []
    headers:
      Content-Type: application/json
      Accept: application/json
    urlParameters:
      id:
        name: id
        description: 'The ID of the mst airline.'
        required: true
        example: consequatur
        type: string
        enumValues: []
        exampleWasSpecified: false
        custom: []
    cleanUrlParameters:
      id: consequatur
    queryParameters: []
    cleanQueryParameters: []
    bodyParameters: []
    cleanBodyParameters: []
    fileParameters: []
    responses:
      -
        status: 200
        content: 'array{data:airlines[]}'
        headers: []
        description: ''
        custom: []
    responseFields: []
    auth: []
    controller: null
    method: null
    route: null
    custom: []
  -
    httpMethods:
      - PUT
      - PATCH
    uri: 'api/mst/mst-airlines/{id}'
    metadata:
      groupName: Master
      groupDescription: |-

        APIs for All Master Controller
      subgroup: ''
      subgroupDescription: ''
      title: 'Update the specified resource in storage.'
      description: ''
      authenticated: false
      custom: []
    headers:
      Content-Type: application/json
      Accept: application/json
    urlParameters:
      id:
        name: id
        description: 'The ID of the mst airline.'
        required: true
        example: quod
        type: string
        enumValues: []
        exampleWasSpecified: false
        custom: []
    cleanUrlParameters:
      id: quod
    queryParameters: []
    cleanQueryParameters: []
    bodyParameters:
      TwoLetterCode:
        name: TwoLetterCode
        description: 'Must be at least 1 character. Must not be greater than 2 characters.'
        required: false
        example: w
        type: string
        enumValues: []
        exampleWasSpecified: false
        custom: []
      ThreeLetterCode:
        name: ThreeLetterCode
        description: 'Must be at least 1 character. Must not be greater than 3 characters.'
        required: false
        example: b
        type: string
        enumValues: []
        exampleWasSpecified: false
        custom: []
      AirlinesName:
        name: AirlinesName
        description: 'Must be at least 1 character. Must not be greater than 25 characters.'
        required: false
        example: ueisrkxskbzcnywktjoaevpz
        type: string
        enumValues: []
        exampleWasSpecified: false
        custom: []
      CountryCode:
        name: CountryCode
        description: 'Must be at least 1 character. Must not be greater than 2 characters.'
        required: false
        example: b
        type: string
        enumValues: []
        exampleWasSpecified: false
        custom: []
      Actived:
        name: Actived
        description: 'Must be at least 1. Must not be greater than 2.'
        required: true
        example: 2
        type: integer
        enumValues: []
        exampleWasSpecified: false
        custom: []
      Void:
        name: Void
        description: 'Must be at least 1. Must not be greater than 2.'
        required: true
        example: 1
        type: integer
        enumValues: []
        exampleWasSpecified: false
        custom: []
      KodeGudangByCustom:
        name: KodeGudangByCustom
        description: 'Must be at least 1 character. Must not be greater than 5 characters.'
        required: true
        example: goee
        type: string
        enumValues: []
        exampleWasSpecified: false
        custom: []
      WHcode:
        name: WHcode
        description: 'Must be at least 1 character. Must not be greater than 5 characters.'
        required: false
        example: w
        type: string
        enumValues: []
        exampleWasSpecified: false
        custom: []
      activeGud:
        name: activeGud
        description: ''
        required: false
        example: '5'
        type: string
        enumValues:
          - '1'
          - '2'
          - '3'
          - '4'
          - '5'
        exampleWasSpecified: false
        custom: []
      flag_ekspor:
        name: flag_ekspor
        description: ''
        required: true
        example: false
        type: boolean
        enumValues: []
        exampleWasSpecified: false
        custom: []
      flag_import:
        name: flag_import
        description: ''
        required: true
        example: false
        type: boolean
        enumValues: []
        exampleWasSpecified: false
        custom: []
      flag_outgoing:
        name: flag_outgoing
        description: ''
        required: true
        example: false
        type: boolean
        enumValues: []
        exampleWasSpecified: false
        custom: []
      flag_incoming:
        name: flag_incoming
        description: ''
        required: true
        example: true
        type: boolean
        enumValues: []
        exampleWasSpecified: false
        custom: []
      flag_plp:
        name: flag_plp
        description: ''
        required: true
        example: true
        type: boolean
        enumValues: []
        exampleWasSpecified: false
        custom: []
    cleanBodyParameters:
      TwoLetterCode: w
      ThreeLetterCode: b
      AirlinesName: ueisrkxskbzcnywktjoaevpz
      CountryCode: b
      Actived: 2
      Void: 1
      KodeGudangByCustom: goee
      WHcode: w
      activeGud: '5'
      flag_ekspor: false
      flag_import: false
      flag_outgoing: false
      flag_incoming: true
      flag_plp: true
    fileParameters: []
    responses:
      -
        status: 200
        content: 'array{status: string, message: string}'
        headers: []
        description: ''
        custom: []
    responseFields: []
    auth: []
    controller: null
    method: null
    route: null
    custom: []
  -
    httpMethods:
      - DELETE
    uri: 'api/mst/mst-airlines/{id}'
    metadata:
      groupName: Master
      groupDescription: |-

        APIs for All Master Controller
      subgroup: ''
      subgroupDescription: ''
      title: 'Remove the specified resource from storage.'
      description: ''
      authenticated: false
      custom: []
    headers:
      Content-Type: application/json
      Accept: application/json
    urlParameters:
      id:
        name: id
        description: 'The ID of the mst airline.'
        required: true
        example: molestiae
        type: string
        enumValues: []
        exampleWasSpecified: false
        custom: []
    cleanUrlParameters:
      id: molestiae
    queryParameters: []
    cleanQueryParameters: []
    bodyParameters: []
    cleanBodyParameters: []
    fileParameters: []
    responses: []
    responseFields: []
    auth: []
    controller: null
    method: null
    route: null
    custom: []
  -
    httpMethods:
      - GET
    uri: api/mst/mst-arrival
    metadata:
      groupName: Master
      groupDescription: |-

        APIs for All Master Controller
      subgroup: ''
      subgroupDescription: ''
      title: 'Display a listing of the resource.'
      description: ''
      authenticated: false
      custom: []
    headers:
      Content-Type: application/json
      Accept: application/json
    urlParameters: []
    cleanUrlParameters: []
    queryParameters: []
    cleanQueryParameters: []
    bodyParameters: []
    cleanBodyParameters: []
    fileParameters: []
    responses:
      -
        status: 200
        content: 'array{data:MstArrivalRepositoryEloquent[]}'
        headers: []
        description: ''
        custom: []
    responseFields: []
    auth: []
    controller: null
    method: null
    route: null
    custom: []
  -
    httpMethods:
      - POST
    uri: api/mst/mst-arrival
    metadata:
      groupName: Master
      groupDescription: |-

        APIs for All Master Controller
      subgroup: ''
      subgroupDescription: ''
      title: 'Store a newly created resource in storage.'
      description: ''
      authenticated: false
      custom: []
    headers:
      Content-Type: application/json
      Accept: application/json
    urlParameters: []
    cleanUrlParameters: []
    queryParameters: []
    cleanQueryParameters: []
    bodyParameters: []
    cleanBodyParameters: []
    fileParameters: []
    responses: []
    responseFields: []
    auth: []
    controller: null
    method: null
    route: null
    custom: []
  -
    httpMethods:
      - GET
    uri: 'api/mst/mst-arrival/{id}'
    metadata:
      groupName: Master
      groupDescription: |-

        APIs for All Master Controller
      subgroup: ''
      subgroupDescription: ''
      title: 'Display the specified resource.'
      description: ''
      authenticated: false
      custom: []
    headers:
      Content-Type: application/json
      Accept: application/json
    urlParameters:
      id:
        name: id
        description: 'The ID of the mst arrival.'
        required: true
        example: sit
        type: string
        enumValues: []
        exampleWasSpecified: false
        custom: []
    cleanUrlParameters:
      id: sit
    queryParameters: []
    cleanQueryParameters: []
    bodyParameters: []
    cleanBodyParameters: []
    fileParameters: []
    responses:
      -
        status: 200
        content: ''
        headers:
          content-type: 'text/html; charset=UTF-8'
          cache-control: 'no-cache, private'
          access-control-allow-origin: '*'
        description: null
        custom: []
    responseFields: []
    auth: []
    controller: null
    method: null
    route: null
    custom: []
  -
    httpMethods:
      - PUT
      - PATCH
    uri: 'api/mst/mst-arrival/{id}'
    metadata:
      groupName: Master
      groupDescription: |-

        APIs for All Master Controller
      subgroup: ''
      subgroupDescription: ''
      title: 'Update the specified resource in storage.'
      description: ''
      authenticated: false
      custom: []
    headers:
      Content-Type: application/json
      Accept: application/json
    urlParameters:
      id:
        name: id
        description: 'The ID of the mst arrival.'
        required: true
        example: illo
        type: string
        enumValues: []
        exampleWasSpecified: false
        custom: []
    cleanUrlParameters:
      id: illo
    queryParameters: []
    cleanQueryParameters: []
    bodyParameters: []
    cleanBodyParameters: []
    fileParameters: []
    responses: []
    responseFields: []
    auth: []
    controller: null
    method: null
    route: null
    custom: []
  -
    httpMethods:
      - DELETE
    uri: 'api/mst/mst-arrival/{id}'
    metadata:
      groupName: Master
      groupDescription: |-

        APIs for All Master Controller
      subgroup: ''
      subgroupDescription: ''
      title: 'Remove the specified resource from storage.'
      description: ''
      authenticated: false
      custom: []
    headers:
      Content-Type: application/json
      Accept: application/json
    urlParameters:
      id:
        name: id
        description: 'The ID of the mst arrival.'
        required: true
        example: cum
        type: string
        enumValues: []
        exampleWasSpecified: false
        custom: []
    cleanUrlParameters:
      id: cum
    queryParameters: []
    cleanQueryParameters: []
    bodyParameters: []
    cleanBodyParameters: []
    fileParameters: []
    responses: []
    responseFields: []
    auth: []
    controller: null
    method: null
    route: null
    custom: []
  -
    httpMethods:
      - GET
    uri: api/mst/mst-beacukai
    metadata:
      groupName: Master
      groupDescription: |-

        APIs for All Master Controller
      subgroup: ''
      subgroupDescription: ''
      title: 'Display a listing of the resource.'
      description: ''
      authenticated: false
      custom: []
    headers:
      Content-Type: application/json
      Accept: application/json
    urlParameters: []
    cleanUrlParameters: []
    queryParameters: []
    cleanQueryParameters: []
    bodyParameters: []
    cleanBodyParameters: []
    fileParameters: []
    responses:
      -
        status: 200
        content: 'array{data:MstBeacukaiRepositoryEloquent[]}'
        headers: []
        description: ''
        custom: []
    responseFields: []
    auth: []
    controller: null
    method: null
    route: null
    custom: []
  -
    httpMethods:
      - POST
    uri: api/mst/mst-beacukai
    metadata:
      groupName: Master
      groupDescription: |-

        APIs for All Master Controller
      subgroup: ''
      subgroupDescription: ''
      title: 'Store a newly created resource in storage.'
      description: ''
      authenticated: false
      custom: []
    headers:
      Content-Type: application/json
      Accept: application/json
    urlParameters: []
    cleanUrlParameters: []
    queryParameters: []
    cleanQueryParameters: []
    bodyParameters: []
    cleanBodyParameters: []
    fileParameters: []
    responses: []
    responseFields: []
    auth: []
    controller: null
    method: null
    route: null
    custom: []
  -
    httpMethods:
      - GET
    uri: 'api/mst/mst-beacukai/{id}'
    metadata:
      groupName: Master
      groupDescription: |-

        APIs for All Master Controller
      subgroup: ''
      subgroupDescription: ''
      title: 'Display the specified resource.'
      description: ''
      authenticated: false
      custom: []
    headers:
      Content-Type: application/json
      Accept: application/json
    urlParameters:
      id:
        name: id
        description: 'The ID of the mst beacukai.'
        required: true
        example: eum
        type: string
        enumValues: []
        exampleWasSpecified: false
        custom: []
    cleanUrlParameters:
      id: eum
    queryParameters: []
    cleanQueryParameters: []
    bodyParameters: []
    cleanBodyParameters: []
    fileParameters: []
    responses:
      -
        status: 200
        content: ''
        headers:
          content-type: 'text/html; charset=UTF-8'
          cache-control: 'no-cache, private'
          access-control-allow-origin: '*'
        description: null
        custom: []
    responseFields: []
    auth: []
    controller: null
    method: null
    route: null
    custom: []
  -
    httpMethods:
      - PUT
      - PATCH
    uri: 'api/mst/mst-beacukai/{id}'
    metadata:
      groupName: Master
      groupDescription: |-

        APIs for All Master Controller
      subgroup: ''
      subgroupDescription: ''
      title: 'Update the specified resource in storage.'
      description: ''
      authenticated: false
      custom: []
    headers:
      Content-Type: application/json
      Accept: application/json
    urlParameters:
      id:
        name: id
        description: 'The ID of the mst beacukai.'
        required: true
        example: quis
        type: string
        enumValues: []
        exampleWasSpecified: false
        custom: []
    cleanUrlParameters:
      id: quis
    queryParameters: []
    cleanQueryParameters: []
    bodyParameters: []
    cleanBodyParameters: []
    fileParameters: []
    responses: []
    responseFields: []
    auth: []
    controller: null
    method: null
    route: null
    custom: []
  -
    httpMethods:
      - DELETE
    uri: 'api/mst/mst-beacukai/{id}'
    metadata:
      groupName: Master
      groupDescription: |-

        APIs for All Master Controller
      subgroup: ''
      subgroupDescription: ''
      title: 'Remove the specified resource from storage.'
      description: ''
      authenticated: false
      custom: []
    headers:
      Content-Type: application/json
      Accept: application/json
    urlParameters:
      id:
        name: id
        description: 'The ID of the mst beacukai.'
        required: true
        example: explicabo
        type: string
        enumValues: []
        exampleWasSpecified: false
        custom: []
    cleanUrlParameters:
      id: explicabo
    queryParameters: []
    cleanQueryParameters: []
    bodyParameters: []
    cleanBodyParameters: []
    fileParameters: []
    responses: []
    responseFields: []
    auth: []
    controller: null
    method: null
    route: null
    custom: []
